{
  "$schema": "http://json.schemastore.org/launchsettings.json",
    "iisSettings": {
      "windowsAuthentication": false,
      "anonymousAuthentication": true,
      "iisExpress": {
        "applicationUrl": "http://localhost:44966",
        "sslPort": 44387
      }
    },
    "profiles": {
      "http": {
        "commandName": "Project",
        "dotnetRunMessages": true,
        "launchBrowser": true,
        "inspectUri": "{wsProtocol}://{url.hostname}:{url.port}/_framework/debug/ws-proxy?browser={browserInspectUri}",
        "applicationUrl": "http://localhost:5129",
        "environmentVariables": {
          "ASPNETCORE_ENVIRONMENT": "Development"
        }
      },
      "https": {
        "commandName": "Project",
        "dotnetRunMessages": true,
        "launchBrowser": true,
        "inspectUri": "{wsProtocol}://{url.hostname}:{url.port}/_framework/debug/ws-proxy?browser={browserInspectUri}",
        "applicationUrl": "https://localhost:7163;http://localhost:5129",
        "environmentVariables": {
          "ASPNETCORE_ENVIRONMENT": "Development"
        }
      },
      "IIS Express": {
        "commandName": "IISExpress",
        "launchBrowser": true,
        "inspectUri": "{wsProtocol}://{url.hostname}:{url.port}/_framework/debug/ws-proxy?browser={browserInspectUri}",
        "environmentVariables": {
          "ASPNETCORE_ENVIRONMENT": "Development"
        }
      }
    }
  }
